{
    "EPP": {
        "seats": 265,
        "percentage": 0.3601,
        "color": [
            38,
            55,
            126
        ]
    },
    "S&D": {
        "seats": 184,
        "percentage": 0.25,
        "color": [
            229,
            36,
            33
        ]
    },
    "ALDE": {
        "seats": 84,
        "percentage": 0.11410000000000001,
        "color": [
            237,
            220,
            0
        ]
    },
    "Greens/EFA": {
        "seats": 55,
        "percentage": 0.0747,
        "color": [
            80,
            172,
            85
        ]
    },
    "ECR": {
        "seats": 54,
        "percentage": 0.0734,
        "color": [
            0,
            72,
            153
        ]
    },
    "GUE/NGL": {
        "seats": 35,
        "percentage": 0.047599999999999996,
        "color": [
            194,
            27,
            28
        ]
    },
    "EFD": {
        "seats": 32,
        "percentage": 0.0435,
        "color": [
            32,
            182,
            194
        ]
    },
    "NI": {
        "seats": 27,
        "percentage": 0.0367,
        "color": [
            170,
            170,
            169
        ]
    }
}